{
	"throughput" : {
		"alpha" : 0.5,
		"beta"  : 1.0,
		"scale" : 0.0,
		"base"  : 1.0
	},

	"data" : {
		"alpha" : 0.5,
		"beta"  : 1.0,
		"scale" : 9.0,
		"base"  : 1.0
	},

	"ethernet" : {
		"loss" : 0,
		"mss"  : 8840,
		"c"    : 1.0
	},

	"full_throughput_always" : 1,

	"runs" : [
		{
			"prefix" : "cost000",
			"seed" : 12345678,
			"d" : 0.00,
			"metric" : "cost",
			"repeat" : 10
		},
		{
			"prefix" : "cost025",
			"seed" : 12345678,
			"d" : 0.25,
			"metric" : "cost",
			"repeat" : 10
		},
		{
			"prefix" : "cost050",
			"seed" : 12345678,
			"d" : 0.50,
			"metric" : "cost",
			"repeat" : 10
		},
		{
			"prefix" : "cost075",
			"seed" : 12345678,
			"d" : 0.75,
			"metric" : "cost",
			"repeat" : 10
		},
		{
			"prefix" : "cost100",
			"seed" : 12345678,
			"d" : 1.00,
			"metric" : "cost",
			"repeat" : 10
		},



		{
			"prefix" : "emissions000",
			"seed" : 12345678,
			"d" : 0.00,
			"metric" : "emissions",
			"repeat" : 10
		},
		{
			"prefix" : "emissions025",
			"seed" : 12345678,
			"d" : 0.25,
			"metric" : "emissions",
			"repeat" : 10
		},
		{
			"prefix" : "emissions050",
			"seed" : 12345678,
			"d" : 0.50,
			"metric" : "emissions",
			"repeat" : 10
		},
		{
			"prefix" : "emissions075",
			"seed" : 12345678,
			"d" : 0.75,
			"metric" : "emissions",
			"repeat" : 10
		},
		{
			"prefix" : "emissions100",
			"seed" : 12345678,
			"d" : 1.00,
			"metric" : "emissions",
			"repeat" : 10
		},



		{
			"prefix" : "throughput000",
			"seed" : 12345678,
			"d" : 0.00,
			"metric" : "throughput",
			"repeat" : 10
		},
		{
			"prefix" : "throughput025",
			"seed" : 12345678,
			"d" : 0.25,
			"metric" : "throughput",
			"repeat" : 10
		},
		{
			"prefix" : "throughput050",
			"seed" : 12345678,
			"d" : 0.50,
			"metric" : "throughput",
			"repeat" : 10
		},
		{
			"prefix" : "throughput075",
			"seed" : 12345678,
			"d" : 0.75,
			"metric" : "throughput",
			"repeat" : 10
		},
		{
			"prefix" : "throughput100",
			"seed" : 12345678,
			"d" : 1.00,
			"metric" : "throughput",
			"repeat" : 10
		}


	]
}
