{
	"kwh_rates" : {
		"netherlands"   : 31.71,
		"nystate"       : 15.66,
		"massachusetts" : 15.53,
		"california"    : 13.58,
		"maryland"      : 13.11,
		"texas"         : 10.18,
		"illinois"      : 9.13,
		"georgia"       : 8.76,
		"tennessee"     : 8.66,
		"colorado"      : 8.36,
		"newmexico"     : 8.2,
		"kansas"        : 8.07
	},

	"carbon_emissions" : {
		"coal"       : 950,
		"anthracite" : 870,
		"oil"        : 640,
		"gasworks"   : 400,
		"naturalgas" : 380,
		"nuclear"    : 66,
		"geothermal" : 40,
		"biomass"    : 30,
		"solar"      : 22,
		"hydro"      : 15,
		"wind"       : 10
	},

	"energy_mixes" : {
		"california" : {
			"naturalgas" : 0.557,
			"nuclear" : 0.155,
			"hydro" : 0.135,
			"geothermal" : 0.064,
			"wind" : 0.028,
			"coal" : 0.028,
			"biomass" : 0.012,
			"solar" : 0.03
		},
		"nystate" : {
			"nuclear" : 0.321,
			"naturalgas" : 0.317,
			"hydro" : 0.209,
			"coal" : 0.097,
			"oil" : 0.02,
			"wind" : 0.017,
			"biomass" : 0.011
		},
		"colorado" : {
			"coal" : 0.627,
			"naturalgas" : 0.274,
			"wind" : 0.058,
			"hydro" : 0.041,
			"solar" : 0.0003
		},
		"kansas" : {
			"coal" : 0.699,
			"nuclear" : 0.19,
			"naturalgas" : 0.057,
			"wind" : 0.052
		},
		"illinois" : {
			"nuclear" : 0.487,
			"coal" : 0.471,
			"naturalgas" : 0.022,
			"wind" : 0.014
		},
		"texas" : {
			"naturalgas" : 0.474,
			"coal" : 0.351,
			"nuclear" : 0.105,
			"wind" : 0.049,
			"gasworks" : 0.01
		},
		"tennessee" : {
			"coal" : 0.538,
			"nuclear" : 0.341,
			"hydro" : 0.12,
			"naturalgas" : 0.005,
			"wind" : 0.001
		},
		"georgia" : {
			"coal" : 0.563,
			"nuclear" : 0.247,
			"naturalgas" : 0.158,
			"hydro" : 0.024
		},
		"maryland" : {
			"coal" : 0.553,
			"nuclear" : 0.33,
			"hydro" : 0.044,
			"naturalgas" : 0.041,
			"biomass" : 0.009,
			"oil" : 0.008,
			"gasworks" : 0.006
		},
		"massachusetts" : {
			"naturalgas" : 0.529,
			"coal" : 0.246,
			"nuclear" : 0.134,
			"biomass" : 0.031,
			"hydro" : 0.032,
			"oil" : 0.022,
			"solar" : 0.006
		},
		"newmexico" : {
			"coal" : 0.732,
			"naturalgas" : 0.22,
			"wind" : 0.039,
			"hydro" : 0.008
		},
		"netherlands" : {
			"naturalgas" : 0.45,
			"oil" : 0.38,
			"coal" : 0.11,
			"nuclear" : 0.01,
			"wind" : 0.05
		}
	}
}